M48
METRIC,TZ
T01C0.3810
T02C0.5080
T03C0.7620
T04C1.0160
%
T01
X+32219Y+4095
X+32133Y+9526
X+6280Y+21636
X+11619Y+21590
X+4514Y+12082
X-360Y+12046
T02
X+14865Y+26653
X+14865Y+24113
X+14865Y+21573
X+14865Y+19033
X+14865Y+16493
X+14865Y+13953
X+14865Y+11413
X+14865Y+8873
X+14865Y+6333
X+14865Y+3793
X+22485Y+3793
X+22485Y+6333
X+22485Y+8873
X+22485Y+11413
X+22485Y+13953
X+22485Y+16493
X+22485Y+19033
X+22485Y+21573
X+22485Y+24113
X+22485Y+26653
X+26474Y+19296
X+29014Y+19296
X+31554Y+19296
X+34094Y+19296
X+8542Y+30360
X+8542Y+27820
X+8542Y+25280
X+3232Y+21610
X+3232Y+19070
X+3232Y+16530
X+3232Y+13990
X+10294Y+16098
X+10294Y+13558
X+10294Y+11018
T03
X+26594Y+24003
X+31674Y+24003
X+27526Y+10546
X+27526Y+8006
X+27526Y+5466
X+27526Y+2926
X+30040Y+10546
X+30040Y+8006
X+30040Y+5466
X+30040Y+2926
T04
X+4134Y+6117
X+4134Y+8657
X+6674Y+2104
X+4134Y+2104
M30
